…
the Mr. Trash Wheel sheet

``` r
# read in
# clean_name
# omit rows that do not include dumpster-specific data
# round
tw_df = 
  read_excel("./data/Trash-Wheel-Collection-Totals-7-2020-2.xlsx", sheet = "Mr. Trash Wheel") %>%
  janitor::clean_names() %>%
  filter(dumpster >= 1 & dumpster != "Grand Total") %>%
  mutate(sports_balls = round(sports_balls))
tw_df
## # A tibble: 453 x 17
##    dumpster month  year date                weight_tons volume_cubic_yards
##    <chr>    <chr> <dbl> <dttm>                    <dbl>              <dbl>
##  1 1        May    2014 2014-05-16 00:00:00        4.31                 18
##  2 2        May    2014 2014-05-16 00:00:00        2.74                 13
##  3 3        May    2014 2014-05-16 00:00:00        3.45                 15
##  4 4        May    2014 2014-05-17 00:00:00        3.1                  15
##  5 5        May    2014 2014-05-17 00:00:00        4.06                 18
##  6 6        May    2014 2014-05-20 00:00:00        2.71                 13
##  7 7        May    2014 2014-05-21 00:00:00        1.91                  8
##  8 8        May    2014 2014-05-28 00:00:00        3.7                  16
##  9 9        June   2014 2014-06-05 00:00:00        2.52                 14
## 10 10       June   2014 2014-06-11 00:00:00        3.76                 18
## # ... with 443 more rows, and 11 more variables: plastic_bottles <dbl>,
## #   polystyrene <dbl>, cigarette_butts <dbl>, glass_bottles <dbl>,
## #   grocery_bags <dbl>, chip_bags <dbl>, sports_balls <dbl>,
## #   homes_powered <dbl>, x15 <chr>, x16 <lgl>, x17 <lgl>
```
…
